Data Collection | Youtube Data & Analysis – Oliver Myers
…
Code

yt_oauth("yourYT_API", "X", token = "")

yt_Lets_Play <- yt_search(term = "Wicked", 
                         published_before = "2025-10-10T00:00:00Z",
                         published_after = "2023-10-01T00:00:00Z", 
                         max_results = 500)

video_data_sample <- yt_Lets_Play
subset_video_data <- video_data_sample %>%
  select(video_id, channelTitle, title, publishedAt)

print(subset_video_data)
## # A tibble: 500 × 4
##    video_id    channelTitle           title                  publishedAt        
##    <chr>       <chr>                  <chr>                  <dttm>             
##  1 R2Xubj7lazE Universal Pictures     Wicked: For Good | Fi… 2025-09-24 12:15:30
##  2 amgPXKrFZVg Wicked: For Good       Wicked | What Is This… 2024-11-22 16:15:27
##  3 qeqj5GnoFUY Republic Records       Defying Gravity (From… 2024-11-22 05:00:42
##  4 vt98AlBDI9Y Universal Pictures     Wicked: For Good | Of… 2025-06-05 00:55:09
##  5 5znZFJWSZ7o Higher Quality Uploads Defying Gravity | Wic… 2025-03-05 18:58:36
##  6 9zyPT0a7sx0 Movieclips             Wicked (2024) 4K - Th… 2025-03-01 14:00:15
##  7 qemetmTzkeE Film Aesthetics        Defying Gravity by Cy… 2025-03-08 18:38:41
##  8 mhKCRnUKp5U THEBLACKLABEL          ALLDAY PROJECT - ‘WIC… 2025-06-23 09:01:03
##  9 6COmYeLsz4c Universal Pictures     Wicked - Official Tra… 2024-05-15 15:00:29
## 10 kmnBhZ9AZhg Levi Plaifha           No One Mourns The Wic… 2025-02-14 01:56:09
## # ℹ 490 more rows
…
